{
    "fluentMethods": true,
    "relationships": [],
    "fields": [
        {
            "fieldName": "protocolNumber",
            "fieldType": "String"
        },
        {
            "fieldName": "applicationId",
            "fieldType": "Integer",
            "fieldValidateRules": [
                "required"
            ]
        },
        {
            "fieldName": "customerId",
            "fieldType": "Integer",
            "fieldValidateRules": [
                "required"
            ]
        },
        {
            "fieldName": "eventType",
            "fieldType": "EventType",
            "fieldValues": "ATTENDANCE, COMPLAINT, EVALUATION",
            "fieldValidateRules": [
                "required"
            ]
        },
        {
            "fieldName": "updatedAt",
            "fieldType": "LocalDate"
        },
        {
            "fieldName": "feedback",
            "fieldType": "String"
        }
    ],
    "changelogDate": "20171031204329",
    "dto": "mapstruct",
    "service": "serviceClass",
    "entityTableName": "interaction",
    "jpaMetamodelFiltering": true,
    "pagination": "no",
    "microserviceName": "interaction",
    "searchEngine": false
}
